mp3/sine/sine.vcd
$date
	Sun Mar  9 17:05:52 2025
$end
$version
	Icarus Verilog
$end
$timescale
	10ns
$end
$scope module sine_tb $end
$var wire 1 ! _9b $end
$var wire 1 " _6a $end
$var wire 1 # _5a $end
$var wire 1 $ _4a $end
$var wire 1 % _49a $end
$var wire 1 & _48b $end
$var wire 1 ' _45a $end
$var wire 1 ( _3b $end
$var wire 1 ) _2a $end
$var wire 1 * _0a $end
$var reg 1 + clk $end
$scope module u0 $end
$var wire 1 + clk $end
$var wire 10 , data [9:0] $end
$var wire 1 ! _9b $end
$var wire 1 " _6a $end
$var wire 1 # _5a $end
$var wire 1 $ _4a $end
$var wire 1 % _49a $end
$var wire 1 & _48b $end
$var wire 1 ' _45a $end
$var wire 1 ( _3b $end
$var wire 1 ) _2a $end
$var wire 1 * _0a $end
$var parameter 10 - MAX_VALUE $end
$var reg 2 . current_state [1:0] $end
$var reg 1 / invert $end
$var reg 10 0 inverted_value [9:0] $end
$var reg 10 1 output_data [9:0] $end
$var reg 7 2 quarter_address [6:0] $end
$var reg 7 3 read_address [6:0] $end
$scope module u1 $end
$var wire 1 + clk $end
$var wire 7 4 read_address [6:0] $end
$var parameter 64 5 INIT_FILE $end
$var reg 10 6 read_data [9:0] $end
$upscope $end
$upscope $end
$upscope $end
$enddefinitions $end
$comment Show the parameter values. $end
$dumpall
b111001101101001011011100110010100101110011101000111100001110100 5
b1111111111 -
$end
#0
$dumpvars
bx 6
b0 4
b0 3
b0 2
bx 1
bx 0
0/
b0 .
bx ,
0+
x*
x)
x(
x'
x&
x%
x$
x#
x"
x!
$end
#4
1&
0'
0%
0(
0#
0*
0)
0$
0"
0!
b111111111 0
b1000000000 1
b1 3
b1 4
b1000000000 ,
b1000000000 6
b1 2
1+
#8
0+
#12
1$
1"
b10 3
b10 4
b111111001 0
b1000000110 1
b10 2
b1000000110 ,
b1000000110 6
1+
#16
0+
#20
1)
0"
b111110011 0
b1000001100 1
b11 3
b11 4
b1000001100 ,
b1000001100 6
b11 2
1+
#24
0+
#28
1*
0)
0$
1"
b100 3
b100 4
b111101101 0
b1000010010 1
b100 2
b1000010010 ,
b1000010010 6
1+
#32
0+
#36
1)
0"
1!
b111100110 0
b1000011001 1
b101 3
b101 4
b1000011001 ,
b1000011001 6
b101 2
1+
#40
0+
#44
1$
1"
b110 3
b110 4
b111100000 0
b1000011111 1
b110 2
b1000011111 ,
b1000011111 6
1+
#48
0+
#52
1#
0*
0)
0"
b111011010 0
b1000100101 1
b111 3
b111 4
b1000100101 ,
b1000100101 6
b111 2
1+
#56
0+
#60
1)
0$
1"
b1000 3
b1000 4
b111010100 0
b1000101011 1
b1000 2
b1000101011 ,
b1000101011 6
1+
#64
0+
#68
1*
0)
0!
b111001101 0
b1000110010 1
b1001 3
b1001 4
b1000110010 ,
b1000110010 6
b1001 2
1+
#72
0+
#76
1)
0"
b1010 3
b1010 4
b111000111 0
b1000111000 1
b1010 2
b1000111000 ,
b1000111000 6
1+
#80
0+
#84
1$
1"
b111000001 0
b1000111110 1
b1011 3
b1011 4
b1000111110 ,
b1000111110 6
b1011 2
1+
#88
0+
#92
1(
0#
0*
0)
0"
b1100 3
b1100 4
b110111011 0
b1001000100 1
b1100 2
b1001000100 ,
b1001000100 6
1+
#96
0+
#100
1)
0$
1"
1!
b110110100 0
b1001001011 1
b1101 3
b1101 4
b1001001011 ,
b1001001011 6
b1101 2
1+
#104
0+
#108
1*
0)
0"
b1110 3
b1110 4
b110101110 0
b1001010001 1
b1110 2
b1001010001 ,
b1001010001 6
1+
#112
0+
#116
1$
1"
b110101000 0
b1001010111 1
b1111 3
b1111 4
b1001010111 ,
b1001010111 6
b1111 2
1+
#120
0+
#124
1)
0"
b10000 3
b10000 4
b110100010 0
b1001011101 1
b10000 2
b1001011101 ,
b1001011101 6
1+
#128
0+
#132
1#
0*
0)
0$
1"
b110011100 0
b1001100011 1
b10001 3
b10001 4
b1001100011 ,
b1001100011 6
b10001 2
1+
#136
0+
#140
1)
0"
b10010 3
b10010 4
b110010110 0
b1001101001 1
b10010 2
b1001101001 ,
b1001101001 6
1+
#144
0+
#148
1*
0)
0!
b110001111 0
b1001110000 1
b10011 3
b10011 4
b1001110000 ,
b1001110000 6
b10011 2
1+
#152
0+
#156
1$
1"
b10100 3
b10100 4
b110001001 0
b1001110110 1
b10100 2
b1001110110 ,
b1001110110 6
1+
#160
0+
#164
1)
0"
b110000011 0
b1001111100 1
b10101 3
b10101 4
b1001111100 ,
b1001111100 6
b10101 2
1+
#168
0+
#172
1%
0(
0#
0*
0)
0$
1"
b10110 3
b10110 4
b101111101 0
b1010000010 1
b10110 2
b1010000010 ,
b1010000010 6
1+
#176
0+
#180
1)
0"
b101110111 0
b1010001000 1
b10111 3
b10111 4
b1010001000 ,
b1010001000 6
b10111 2
1+
#184
0+
#188
1$
1"
b11000 3
b11000 4
b101110001 0
b1010001110 1
b11000 2
b1010001110 ,
b1010001110 6
1+
#192
0+
#196
1*
0)
0"
b101101011 0
b1010010100 1
b11001 3
b11001 4
b1010010100 ,
b1010010100 6
b11001 2
1+
#200
0+
#204
1)
0$
1"
b11010 3
b11010 4
b101100101 0
b1010011010 1
b11010 2
b1010011010 ,
b1010011010 6
1+
#208
0+
#212
1#
0*
0)
0"
b101011111 0
b1010100000 1
b11011 3
b11011 4
b1010100000 ,
b1010100000 6
b11011 2
1+
#216
0+
#220
1$
1"
b11100 3
b11100 4
b101011001 0
b1010100110 1
b11100 2
b1010100110 ,
b1010100110 6
1+
#224
0+
#228
1)
0"
b101010011 0
b1010101100 1
b11101 3
b11101 4
b1010101100 ,
b1010101100 6
b11101 2
1+
#232
0+
#236
1*
0)
0$
1"
b11110 3
b11110 4
b101001101 0
b1010110010 1
b11110 2
b1010110010 ,
b1010110010 6
1+
#240
0+
#244
1)
0"
b101000111 0
b1010111000 1
b11111 3
b11111 4
b1010111000 ,
b1010111000 6
b11111 2
1+
#248
0+
#252
1$
1!
b100000 3
b100000 4
b101000010 0
b1010111101 1
b100000 2
b1010111101 ,
b1010111101 6
1+
#256
0+
#260
1(
0#
0*
0)
0$
1"
b100111100 0
b1011000011 1
b100001 3
b100001 4
b1011000011 ,
b1011000011 6
b100001 2
1+
#264
0+
#268
1)
0"
b100010 3
b100010 4
b100110110 0
b1011001001 1
b100010 2
b1011001001 ,
b1011001001 6
1+
#272
0+
#276
1$
1"
b100110000 0
b1011001111 1
b100011 3
b100011 4
b1011001111 ,
b1011001111 6
b100011 2
1+
#280
0+
#284
1*
0)
0"
b100100 3
b100100 4
b100101010 0
b1011010101 1
b100100 2
b1011010101 ,
b1011010101 6
1+
#288
0+
#292
1)
0$
1"
0!
b100100101 0
b1011011010 1
b100101 3
b100101 4
b1011011010 ,
b1011011010 6
b100101 2
1+
#296
0+
#300
1#
0*
0)
0"
b100110 3
b100110 4
b100011111 0
b1011100000 1
b100110 2
b1011100000 ,
b1011100000 6
1+
#304
0+
#308
1$
1!
b100011010 0
b1011100101 1
b100111 3
b100111 4
b1011100101 ,
b1011100101 6
b100111 2
1+
#312
0+
#316
1)
0$
1"
b101000 3
b101000 4
b100010100 0
b1011101011 1
b101000 2
b1011101011 ,
b1011101011 6
1+
#320
0+
#324
1*
0)
0"
b100001110 0
b1011110001 1
b101001 3
b101001 4
b1011110001 ,
b1011110001 6
b101001 2
1+
#328
0+
#332
1$
1"
0!
b101010 3
b101010 4
b100001001 0
b1011110110 1
b101010 2
b1011110110 ,
b1011110110 6
1+
#336
0+
#340
1)
0"
b100000011 0
b1011111100 1
b101011 3
b101011 4
b1011111100 ,
b1011111100 6
b101011 2
1+
#344
0+
#348
1'
0%
0(
0#
0*
0)
0$
1!
b101100 3
b101100 4
b11111110 0
b1100000001 1
b101100 2
b1100000001 ,
b1100000001 6
1+
#352
0+
#356
1$
1"
0!
b11111001 0
b1100000110 1
b101101 3
b101101 4
b1100000110 ,
b1100000110 6
b101101 2
1+
#360
0+
#364
1)
0"
b101110 3
b101110 4
b11110011 0
b1100001100 1
b101110 2
b1100001100 ,
b1100001100 6
1+
#368
0+
#372
1*
0)
0$
1!
b11101110 0
b1100010001 1
b101111 3
b101111 4
b1100010001 ,
b1100010001 6
b101111 2
1+
#376
0+
#380
1$
1"
0!
b110000 3
b110000 4
b11101001 0
b1100010110 1
b110000 2
b1100010110 ,
b1100010110 6
1+
#384
0+
#388
1)
0"
b11100011 0
b1100011100 1
b110001 3
b110001 4
b1100011100 ,
b1100011100 6
b110001 2
1+
#392
0+
#396
1#
0*
0)
0$
1!
b110010 3
b110010 4
b11011110 0
b1100100001 1
b110010 2
b1100100001 ,
b1100100001 6
1+
#400
0+
#404
1$
1"
0!
b11011001 0
b1100100110 1
b110011 3
b110011 4
b1100100110 ,
b1100100110 6
b110011 2
1+
#408
0+
#412
1)
0$
1!
b110100 3
b110100 4
b11010100 0
b1100101011 1
b110100 2
b1100101011 ,
b1100101011 6
1+
#416
0+
#420
1*
0)
0"
0!
b11001111 0
b1100110000 1
b110101 3
b110101 4
b1100110000 ,
b1100110000 6
b110101 2
1+
#424
0+
#428
1$
1!
b110110 3
b110110 4
b11001010 0
b1100110101 1
b110110 2
b1100110101 ,
b1100110101 6
1+
#432
0+
#436
1)
0$
1"
0!
b11000101 0
b1100111010 1
b110111 3
b110111 4
b1100111010 ,
b1100111010 6
b110111 2
1+
#440
0+
#444
1$
1!
b111000 3
b111000 4
b11000000 0
b1100111111 1
b111000 2
b1100111111 ,
b1100111111 6
1+
#448
0+
#452
1(
0#
0*
0)
0"
0!
b10111011 0
b1101000100 1
b111001 3
b111001 4
b1101000100 ,
b1101000100 6
b111001 2
1+
#456
0+
#460
1)
0$
1!
b111010 3
b111010 4
b10110110 0
b1101001001 1
b111010 2
b1101001001 ,
b1101001001 6
1+
#464
0+
#468
1$
1"
0!
b10110001 0
b1101001110 1
b111011 3
b111011 4
b1101001110 ,
b1101001110 6
b111011 2
1+
#472
0+
#476
1*
0)
0$
b111100 3
b111100 4
b10101101 0
b1101010010 1
b111100 2
b1101010010 ,
b1101010010 6
1+
#480
0+
#484
1$
1!
b10101000 0
b1101010111 1
b111101 3
b111101 4
b1101010111 ,
b1101010111 6
b111101 2
1+
#488
0+
#492
1)
0"
0!
b111110 3
b111110 4
b10100011 0
b1101011100 1
b111110 2
b1101011100 ,
b1101011100 6
1+
#496
0+
#500
1#
0*
0)
0$
b10011111 0
b1101100000 1
b111111 3
b111111 4
b1101100000 ,
b1101100000 6
b111111 2
1+
#504
0+
#508
1$
1!
b1000000 3
b1000000 4
b10011010 0
b1101100101 1
b1000000 2
b1101100101 ,
b1101100101 6
1+
#512
0+
#516
1)
0$
b10010110 0
b1101101001 1
b1000001 3
b1000001 4
b1101101001 ,
b1101101001 6
b1000001 2
1+
#520
0+
#524
1$
1"
0!
b1000010 3
b1000010 4
b10010001 0
b1101101110 1
b1000010 2
b1101101110 ,
b1101101110 6
1+
#528
0+
#532
1*
0)
0$
b10001101 0
b1101110010 1
b1000011 3
b1000011 4
b1101110010 ,
b1101110010 6
b1000011 2
1+
#536
0+
#540
1$
b1000100 3
b1000100 4
b10001001 0
b1101110110 1
b1000100 2
b1101110110 ,
b1101110110 6
1+
#544
0+
#548
1)
0$
b10000101 0
b1101111010 1
b1000101 3
b1000101 4
b1101111010 ,
b1101111010 6
b1000101 2
1+
#552
0+
#556
1$
1!
b1000110 3
b1000110 4
b10000000 0
b1101111111 1
b1000110 2
b1101111111 ,
b1101111111 6
1+
#560
0+
#564
1%
0(
0#
0*
0)
0$
b1111100 0
b1110000011 1
b1000111 3
b1000111 4
b1110000011 ,
b1110000011 6
b1000111 2
1+
#568
0+
#572
1$
b1001000 3
b1001000 4
b1111000 0
b1110000111 1
b1001000 2
b1110000111 ,
b1110000111 6
1+
#576
0+
#580
1)
0$
b1110100 0
b1110001011 1
b1001001 3
b1001001 4
b1110001011 ,
b1110001011 6
b1001001 2
1+
#584
0+
#588
1$
b1001010 3
b1001010 4
b1110000 0
b1110001111 1
b1001010 2
b1110001111 ,
b1110001111 6
1+
#592
0+
#596
1*
0)
0$
b1101100 0
b1110010011 1
b1001011 3
b1001011 4
b1110010011 ,
b1110010011 6
b1001011 2
1+
#600
0+
#604
1$
b1001100 3
b1001100 4
b1101000 0
b1110010111 1
b1001100 2
b1110010111 ,
b1110010111 6
1+
#608
0+
#612
1)
0$
0!
b1100101 0
b1110011010 1
b1001101 3
b1001101 4
b1110011010 ,
b1110011010 6
b1001101 2
1+
#616
0+
#620
1$
b1001110 3
b1001110 4
b1100001 0
b1110011110 1
b1001110 2
b1110011110 ,
b1110011110 6
1+
#624
0+
#628
1#
0*
0)
0$
b1011101 0
b1110100010 1
b1001111 3
b1001111 4
b1110100010 ,
b1110100010 6
b1001111 2
1+
#632
0+
#636
1$
0"
1!
b1010000 3
b1010000 4
b1011010 0
b1110100101 1
b1010000 2
b1110100101 ,
b1110100101 6
1+
#640
0+
#644
1)
0$
b1010110 0
b1110101001 1
b1010001 3
b1010001 4
b1110101001 ,
b1110101001 6
b1010001 2
1+
#648
0+
#652
1$
0!
b1010010 3
b1010010 4
b1010011 0
b1110101100 1
b1010010 2
b1110101100 ,
b1110101100 6
1+
#656
0+
#660
1*
0)
0$
b1001111 0
b1110110000 1
b1010011 3
b1010011 4
b1110110000 ,
b1110110000 6
b1010011 2
1+
#664
0+
#668
1"
1!
b1010100 3
b1010100 4
b1001100 0
b1110110011 1
b1010100 2
b1110110011 ,
b1110110011 6
1+
#672
0+
#676
1$
0!
b1001001 0
b1110110110 1
b1010101 3
b1010101 4
b1110110110 ,
b1110110110 6
b1010101 2
1+
#680
0+
#684
1)
0$
0"
1!
b1010110 3
b1010110 4
b1000110 0
b1110111001 1
b1010110 2
b1110111001 ,
b1110111001 6
1+
#688
0+
#692
1$
b1000010 0
b1110111101 1
b1010111 3
b1010111 4
b1110111101 ,
b1110111101 6
b1010111 2
1+
#696
0+
#700
1(
0#
0*
0)
0$
0!
b1011000 3
b1011000 4
b111111 0
b1111000000 1
b1011000 2
b1111000000 ,
b1111000000 6
1+
#704
0+
#708
1"
1!
b111100 0
b1111000011 1
b1011001 3
b1011001 4
b1111000011 ,
b1111000011 6
b1011001 2
1+
#712
0+
#716
1$
0!
b1011010 3
b1011010 4
b111001 0
b1111000110 1
b1011010 2
b1111000110 ,
b1111000110 6
1+
#720
0+
#724
1)
0$
0"
b110111 0
b1111001000 1
b1011011 3
b1011011 4
b1111001000 ,
b1111001000 6
b1011011 2
1+
#728
0+
#732
1"
1!
b1011100 3
b1011100 4
b110100 0
b1111001011 1
b1011100 2
b1111001011 ,
b1111001011 6
1+
#736
0+
#740
1$
0!
b110001 0
b1111001110 1
b1011101 3
b1011101 4
b1111001110 ,
b1111001110 6
b1011101 2
1+
#744
0+
#748
1*
0)
0$
0"
1!
b1011110 3
b1011110 4
b101110 0
b1111010001 1
b1011110 2
b1111010001 ,
b1111010001 6
1+
#752
0+
#756
1"
b101100 0
b1111010011 1
b1011111 3
b1011111 4
b1111010011 ,
b1111010011 6
b1011111 2
1+
#760
0+
#764
1$
0!
b1100000 3
b1100000 4
b101001 0
b1111010110 1
b1100000 2
b1111010110 ,
b1111010110 6
1+
#768
0+
#772
1)
0$
0"
b100111 0
b1111011000 1
b1100001 3
b1100001 4
b1111011000 ,
b1111011000 6
b1100001 2
1+
#776
0+
#780
1"
b1100010 3
b1100010 4
b100101 0
b1111011010 1
b1100010 2
b1111011010 ,
b1111011010 6
1+
#784
0+
#788
1$
0"
1!
b100010 0
b1111011101 1
b1100011 3
b1100011 4
b1111011101 ,
b1111011101 6
b1100011 2
1+
#792
0+
#796
1"
b1100100 3
b1100100 4
b100000 0
b1111011111 1
b1100100 2
b1111011111 ,
b1111011111 6
1+
#800
0+
#804
1#
0*
0)
0$
0"
b11110 0
b1111100001 1
b1100101 3
b1100101 4
b1111100001 ,
b1111100001 6
b1100101 2
1+
#808
0+
#812
1"
b1100110 3
b1100110 4
b11100 0
b1111100011 1
b1100110 2
b1111100011 ,
b1111100011 6
1+
#816
0+
#820
1$
0"
b11010 0
b1111100101 1
b1100111 3
b1100111 4
b1111100101 ,
b1111100101 6
b1100111 2
1+
#824
0+
#828
1"
b1101000 3
b1101000 4
b11000 0
b1111100111 1
b1101000 2
b1111100111 ,
b1111100111 6
1+
#832
0+
#836
1)
0$
0"
b10110 0
b1111101001 1
b1101001 3
b1101001 4
b1111101001 ,
b1111101001 6
b1101001 2
1+
#840
0+
#844
1"
b1101010 3
b1101010 4
b10100 0
b1111101011 1
b1101010 2
b1111101011 ,
b1111101011 6
1+
#848
0+
#852
1$
0"
0!
b10011 0
b1111101100 1
b1101011 3
b1101011 4
b1111101100 ,
b1111101100 6
b1101011 2
1+
#856
0+
#860
1"
b1101100 3
b1101100 4
b10001 0
b1111101110 1
b1101100 2
b1111101110 ,
b1111101110 6
1+
#864
0+
#868
1*
0)
0$
0"
b1111 0
b1111110000 1
b1101101 3
b1101101 4
b1111110000 ,
b1111110000 6
b1101101 2
1+
#872
0+
#876
1!
b1101110 3
b1101110 4
b1110 0
b1111110001 1
b1101110 2
b1111110001 ,
b1111110001 6
1+
#880
0+
#884
1"
b1100 0
b1111110011 1
b1101111 3
b1101111 4
b1111110011 ,
b1111110011 6
b1101111 2
1+
#888
0+
#892
1$
0"
0!
b1110000 3
b1110000 4
b1011 0
b1111110100 1
b1110000 2
b1111110100 ,
b1111110100 6
1+
#896
0+
#900
1!
b1010 0
b1111110101 1
b1110001 3
b1110001 4
b1111110101 ,
b1111110101 6
b1110001 2
1+
#904
0+
#908
1"
0!
b1110010 3
b1110010 4
b1001 0
b1111110110 1
b1110010 2
b1111110110 ,
b1111110110 6
1+
#912
0+
#916
1!
b1000 0
b1111110111 1
b1110011 3
b1110011 4
b1111110111 ,
b1111110111 6
b1110011 2
1+
#920
0+
#924
1)
0$
0"
b1110100 3
b1110100 4
b110 0
b1111111001 1
b1110100 2
b1111111001 ,
b1111111001 6
1+
#928
0+
#932
b1110101 3
b1110101 4
b1110101 2
1+
#936
0+
#940
1"
0!
b1110110 3
b1110110 4
b101 0
b1111111010 1
b1110110 2
b1111111010 ,
b1111111010 6
1+
#944
0+
#948
1!
b100 0
b1111111011 1
b1110111 3
b1110111 4
b1111111011 ,
b1111111011 6
b1110111 2
1+
#952
0+
#956
1$
0"
0!
b1111000 3
b1111000 4
b11 0
b1111111100 1
b1111000 2
b1111111100 ,
b1111111100 6
1+
#960
0+
#964
1!
b10 0
b1111111101 1
b1111001 3
b1111001 4
b1111111101 ,
b1111111101 6
b1111001 2
1+
#968
0+
#972
b1111010 3
b1111010 4
b1111010 2
1+
#976
0+
#980
1"
0!
b1 0
b1111111110 1
b1111011 3
b1111011 4
b1111111110 ,
b1111111110 6
b1111011 2
1+
#984
0+
#988
b1111100 3
b1111100 4
b1111100 2
1+
#992
0+
#996
b1111101 3
b1111101 4
b1111101 2
1+
#1000
0+
#1004
1!
b1111110 3
b1111110 4
b0 0
b1111111111 1
b1111110 2
b1111111111 ,
b1111111111 6
1+
#1008
0+
#1012
b1111111 3
b1111111 4
b1111111 2
1+
#1016
0+
#1020
b1 .
b0 2
1+
#1024
0+
#1028
b1111110 3
b1111110 4
b1 2
1+
#1032
0+
#1036
b1111101 3
b1111101 4
b10 2
1+
#1040
0+
#1044
b1111100 3
b1111100 4
b11 2
1+
#1048
0+
#1052
0!
b1111011 3
b1111011 4
b1 0
b1111111110 1
b100 2
b1111111110 ,
b1111111110 6
1+
#1056
0+
#1060
b1111010 3
b1111010 4
b101 2
1+
#1064
0+
#1068
b1111001 3
b1111001 4
b110 2
1+
#1072
0+
#1076
0"
1!
b10 0
b1111111101 1
b1111000 3
b1111000 4
b1111111101 ,
b1111111101 6
b111 2
1+
#1080
0+
#1084
b1110111 3
b1110111 4
b1000 2
1+
#1088
0+
#1092
0!
b11 0
b1111111100 1
b1110110 3
b1110110 4
b1111111100 ,
b1111111100 6
b1001 2
1+
#1096
0+
#1100
0$
1"
1!
b1110101 3
b1110101 4
b100 0
b1111111011 1
b1010 2
b1111111011 ,
b1111111011 6
1+
#1104
0+
#1108
0!
b101 0
b1111111010 1
b1110100 3
b1110100 4
b1111111010 ,
b1111111010 6
b1011 2
1+
#1112
0+
#1116
0"
1!
b1110011 3
b1110011 4
b110 0
b1111111001 1
b1100 2
b1111111001 ,
b1111111001 6
1+
#1120
0+
#1124
b1110010 3
b1110010 4
b1101 2
1+
#1128
0+
#1132
0)
1$
1"
b1110001 3
b1110001 4
b1000 0
b1111110111 1
b1110 2
b1111110111 ,
b1111110111 6
1+
#1136
0+
#1140
0!
b1001 0
b1111110110 1
b1110000 3
b1110000 4
b1111110110 ,
b1111110110 6
b1111 2
1+
#1144
0+
#1148
0"
1!
b1101111 3
b1101111 4
b1010 0
b1111110101 1
b10000 2
b1111110101 ,
b1111110101 6
1+
#1152
0+
#1156
0!
b1011 0
b1111110100 1
b1101110 3
b1101110 4
b1111110100 ,
b1111110100 6
b10001 2
1+
#1160
0+
#1164
0$
1"
1!
b1101101 3
b1101101 4
b1100 0
b1111110011 1
b10010 2
b1111110011 ,
b1111110011 6
1+
#1168
0+
#1172
0"
b1110 0
b1111110001 1
b1101100 3
b1101100 4
b1111110001 ,
b1111110001 6
b10011 2
1+
#1176
0+
#1180
0!
b1101011 3
b1101011 4
b1111 0
b1111110000 1
b10100 2
b1111110000 ,
b1111110000 6
1+
#1184
0+
#1188
0*
1)
1$
1"
b10001 0
b1111101110 1
b1101010 3
b1101010 4
b1111101110 ,
b1111101110 6
b10101 2
1+
#1192
0+
#1196
0"
b1101001 3
b1101001 4
b10011 0
b1111101100 1
b10110 2
b1111101100 ,
b1111101100 6
1+
#1200
0+
#1204
0$
1"
1!
b10100 0
b1111101011 1
b1101000 3
b1101000 4
b1111101011 ,
b1111101011 6
b10111 2
1+
#1208
0+
#1212
0"
b1100111 3
b1100111 4
b10110 0
b1111101001 1
b11000 2
b1111101001 ,
b1111101001 6
1+
#1216
0+
#1220
0)
1$
1"
b11000 0
b1111100111 1
b1100110 3
b1100110 4
b1111100111 ,
b1111100111 6
b11001 2
1+
#1224
0+
#1228
0"
b1100101 3
b1100101 4
b11010 0
b1111100101 1
b11010 2
b1111100101 ,
b1111100101 6
1+
#1232
0+
#1236
0$
1"
b11100 0
b1111100011 1
b1100100 3
b1100100 4
b1111100011 ,
b1111100011 6
b11011 2
1+
#1240
0+
#1244
0"
b1100011 3
b1100011 4
b11110 0
b1111100001 1
b11100 2
b1111100001 ,
b1111100001 6
1+
#1248
0+
#1252
0#
1*
1)
1$
1"
b100000 0
b1111011111 1
b1100010 3
b1100010 4
b1111011111 ,
b1111011111 6
b11101 2
1+
#1256
0+
#1260
0"
b1100001 3
b1100001 4
b100010 0
b1111011101 1
b11110 2
b1111011101 ,
b1111011101 6
1+
#1264
0+
#1268
0$
1"
0!
b100101 0
b1111011010 1
b1100000 3
b1100000 4
b1111011010 ,
b1111011010 6
b11111 2
1+
#1272
0+
#1276
0"
b1011111 3
b1011111 4
b100111 0
b1111011000 1
b100000 2
b1111011000 ,
b1111011000 6
1+
#1280
0+
#1284
0)
1$
1"
b101001 0
b1111010110 1
b1011110 3
b1011110 4
b1111010110 ,
b1111010110 6
b100001 2
1+
#1288
0+
#1292
0$
1!
b1011101 3
b1011101 4
b101100 0
b1111010011 1
b100010 2
b1111010011 ,
b1111010011 6
1+
#1296
0+
#1300
0"
b101110 0
b1111010001 1
b1011100 3
b1011100 4
b1111010001 ,
b1111010001 6
b100011 2
1+
#1304
0+
#1308
0*
1)
1$
1"
0!
b1011011 3
b1011011 4
b110001 0
b1111001110 1
b100100 2
b1111001110 ,
b1111001110 6
1+
#1312
0+
#1316
0$
1!
b110100 0
b1111001011 1
b1011010 3
b1011010 4
b1111001011 ,
b1111001011 6
b100101 2
1+
#1320
0+
#1324
0"
0!
b1011001 3
b1011001 4
b110111 0
b1111001000 1
b100110 2
b1111001000 ,
b1111001000 6
1+
#1328
0+
#1332
0)
1$
1"
b111001 0
b1111000110 1
b1011000 3
b1011000 4
b1111000110 ,
b1111000110 6
b100111 2
1+
#1336
0+
#1340
0$
1!
b1010111 3
b1010111 4
b111100 0
b1111000011 1
b101000 2
b1111000011 ,
b1111000011 6
1+
#1344
0+
#1348
0"
0!
b111111 0
b1111000000 1
b1010110 3
b1010110 4
b1111000000 ,
b1111000000 6
b101001 2
1+
#1352
0+
#1356
0(
1#
1*
1)
1$
1!
b1010101 3
b1010101 4
b1000010 0
b1110111101 1
b101010 2
b1110111101 ,
b1110111101 6
1+
#1360
0+
#1364
0$
b1000110 0
b1110111001 1
b1010100 3
b1010100 4
b1110111001 ,
b1110111001 6
b101011 2
1+
#1368
0+
#1372
0)
1$
1"
0!
b1010011 3
b1010011 4
b1001001 0
b1110110110 1
b101100 2
b1110110110 ,
b1110110110 6
1+
#1376
0+
#1380
0$
1!
b1001100 0
b1110110011 1
b1010010 3
b1010010 4
b1110110011 ,
b1110110011 6
b101101 2
1+
#1384
0+
#1388
0"
0!
b1010001 3
b1010001 4
b1001111 0
b1110110000 1
b101110 2
b1110110000 ,
b1110110000 6
1+
#1392
0+
#1396
0*
1)
1$
b1010011 0
b1110101100 1
b1010000 3
b1010000 4
b1110101100 ,
b1110101100 6
b101111 2
1+
#1400
0+
#1404
0$
1!
b1001111 3
b1001111 4
b1010110 0
b1110101001 1
b110000 2
b1110101001 ,
b1110101001 6
1+
#1408
0+
#1412
0)
1$
b1011010 0
b1110100101 1
b1001110 3
b1001110 4
b1110100101 ,
b1110100101 6
b110001 2
1+
#1416
0+
#1420
0$
1"
0!
b1001101 3
b1001101 4
b1011101 0
b1110100010 1
b110010 2
b1110100010 ,
b1110100010 6
1+
#1424
0+
#1428
0#
1*
1)
1$
b1100001 0
b1110011110 1
b1001100 3
b1001100 4
b1110011110 ,
b1110011110 6
b110011 2
1+
#1432
0+
#1436
0$
b1001011 3
b1001011 4
b1100101 0
b1110011010 1
b110100 2
b1110011010 ,
b1110011010 6
1+
#1440
0+
#1444
0)
1$
1!
b1101000 0
b1110010111 1
b1001010 3
b1001010 4
b1110010111 ,
b1110010111 6
b110101 2
1+
#1448
0+
#1452
0$
b1001001 3
b1001001 4
b1101100 0
b1110010011 1
b110110 2
b1110010011 ,
b1110010011 6
1+
#1456
0+
#1460
0*
1)
1$
b1110000 0
b1110001111 1
b1001000 3
b1001000 4
b1110001111 ,
b1110001111 6
b110111 2
1+
#1464
0+
#1468
0$
b1000111 3
b1000111 4
b1110100 0
b1110001011 1
b111000 2
b1110001011 ,
b1110001011 6
1+
#1472
0+
#1476
0)
1$
b1111000 0
b1110000111 1
b1000110 3
b1000110 4
b1110000111 ,
b1110000111 6
b111001 2
1+
#1480
0+
#1484
0$
b1000101 3
b1000101 4
b1111100 0
b1110000011 1
b111010 2
b1110000011 ,
b1110000011 6
1+
#1488
0+
#1492
0%
1(
1#
1*
1)
1$
b10000000 0
b1101111111 1
b1000100 3
b1000100 4
b1101111111 ,
b1101111111 6
b111011 2
1+
#1496
0+
#1500
0$
0!
b1000011 3
b1000011 4
b10000101 0
b1101111010 1
b111100 2
b1101111010 ,
b1101111010 6
1+
#1504
0+
#1508
0)
1$
b10001001 0
b1101110110 1
b1000010 3
b1000010 4
b1101110110 ,
b1101110110 6
b111101 2
1+
#1512
0+
#1516
0$
b1000001 3
b1000001 4
b10001101 0
b1101110010 1
b111110 2
b1101110010 ,
b1101110010 6
1+
#1520
0+
#1524
0*
1)
1$
b10010001 0
b1101101110 1
b1000000 3
b1000000 4
b1101101110 ,
b1101101110 6
b111111 2
1+
#1528
0+
#1532
0$
0"
1!
b111111 3
b111111 4
b10010110 0
b1101101001 1
b1000000 2
b1101101001 ,
b1101101001 6
1+
#1536
0+
#1540
0)
1$
b10011010 0
b1101100101 1
b111110 3
b111110 4
b1101100101 ,
b1101100101 6
b1000001 2
1+
#1544
0+
#1548
0$
0!
b111101 3
b111101 4
b10011111 0
b1101100000 1
b1000010 2
b1101100000 ,
b1101100000 6
1+
#1552
0+
#1556
0#
1*
1)
1$
b10100011 0
b1101011100 1
b111100 3
b111100 4
b1101011100 ,
b1101011100 6
b1000011 2
1+
#1560
0+
#1564
0)
1"
1!
b111011 3
b111011 4
b10101000 0
b1101010111 1
b1000100 2
b1101010111 ,
b1101010111 6
1+
#1568
0+
#1572
0$
0!
b10101101 0
b1101010010 1
b111010 3
b111010 4
b1101010010 ,
b1101010010 6
b1000101 2
1+
#1576
0+
#1580
0*
1)
1$
b111001 3
b111001 4
b10110001 0
b1101001110 1
b1000110 2
b1101001110 ,
b1101001110 6
1+
#1584
0+
#1588
0$
0"
1!
b10110110 0
b1101001001 1
b111000 3
b111000 4
b1101001001 ,
b1101001001 6
b1000111 2
1+
#1592
0+
#1596
0)
1$
0!
b110111 3
b110111 4
b10111011 0
b1101000100 1
b1001000 2
b1101000100 ,
b1101000100 6
1+
#1600
0+
#1604
0(
1#
1*
1)
1"
1!
b11000000 0
b1100111111 1
b110110 3
b110110 4
b1100111111 ,
b1100111111 6
b1001001 2
1+
#1608
0+
#1612
0$
0!
b110101 3
b110101 4
b11000101 0
b1100111010 1
b1001010 2
b1100111010 ,
b1100111010 6
1+
#1616
0+
#1620
0)
1$
0"
1!
b11001010 0
b1100110101 1
b110100 3
b110100 4
b1100110101 ,
b1100110101 6
b1001011 2
1+
#1624
0+
#1628
0$
0!
b110011 3
b110011 4
b11001111 0
b1100110000 1
b1001100 2
b1100110000 ,
b1100110000 6
1+
#1632
0+
#1636
0*
1)
1"
1!
b11010100 0
b1100101011 1
b110010 3
b110010 4
b1100101011 ,
b1100101011 6
b1001101 2
1+
#1640
0+
